﻿{
  "Page": "43",
  "Headline": "Switch Box 38",
  "Text": [
    "Valid Settings: ",
    " 11110 .. Active Naviation System",
    " 10101 .. Active Labor System",
    " 01010 .. Active Engine System",
    " 10111 .. Active Light System"
  ]
}
