{
    "image": "img/level1.jpg",
    "name": "Deck",
    "path": "level1.json",
    "intro": "You manage to secure your boat with a few ropes. You climp up the side of the ship with the help of a grappling hook which, to be honest, looks kind of stupid. You honestly should get in shape...<br><br>Finally on the deck you look for a way into the ship. You find a door that looks like a good starting point but there is a keypad between you and the inside of the ship...",
    "poi": [
        {
            "x": 231,
            "y": 364,
            "width": 86,
            "height": 64,
            "tooltip": "You pick up the id. Apparently it belongs to a \"Frank Strongman\". You are wondering where he might be now... "
        },
        {
            "x": 248,
            "y": 19,
            "width": 220,
            "height": 320,
            "tooltip": "You push against the door. There is always a chance that it is unlocked you think. Sadly it does not give in. You need to find the combination for the keypad. What a bummer..."
        },
        {
            "x": 485,
            "y": 135,
            "width": 95,
            "height": 100,
            "tooltip": "There is a keypad in front of you. You type in \"1111\" but no luck. What combination do you want to try next?",
            "eventType": "numberInput",
            "eventSolution": "4398"
        }
    ]
}
