﻿{
  "Number": 42,
  "Name": "Frank Strongman",
  "Birthdate": "1975-03-25",
  "Bio": "Ship Engineer responsible for the ships engines.",
  "Logs": [
    {
      "Day": "5",
      "Text": "Today is the 20th anniversary of my wedding and I can't be with my wife.\nThis is one of the days where I question my life choices.\nShe deserves so much better...\nBut I know she is thinking of me right now. I can feel it."
    },
    {
      "Day": "10",
      "Text": "Some of the crew members randomly started singing 'We didn't start the fire' today.\nDays like this, when the whole crew is having fun is when I don't regret becoming a ship engineer."
    },
    {
      "Day": "8",
      "Text":  "Max changed the keypad combination for the ouside door today. 'Security Reasons' he said. Luckily I got a nice memory hook so that I don't forget it. \nThe first two numbers are my age (god I am getting old).\nThe last 2 digits are the year I married my beautiful wife."
    }
  ]
}
