﻿{
  "Number": 18,
  "Name": "Marc Harper",
  "Birthdate": "1996-07-01",
  "Bio": "Security specialist, responsible for emercency protocols",
  "Logs": [
    {
      "Day": "3",
      "Text": "Today I got told that I have to work out a new security protocol in case of an emergency. That is a pretty hard task considering I have no clue what the scientist are working on downstairs...\nThis is going to be fun."
    },
    {
      "Day": "8",
      "Text": "The work on the new security protocol is going well. I finished the concept for the lock on the captains cabine today.\nIt is going to lock in case of an emergency to make sure that invaders can not take over control of the ship.\nNow I just have to figure out how to make the combination as secure as possible."
    },
    {
      "Day": "12",
      "Text": "I spoke with my boss today. He did not like my complicated algorithm to generate the key for the captains cabine. I am kinda bumbed about that, the algorithm was pretty cool.\nInstead he told me to 'just set the combination to something I can remember'.\nSo I set the combination to '.---- ...-- ...-- --...'"
    }
  ]
}
